{
  "version": "15.1.0",
  "vulnerabilities": [
    {
      "id": ":SKIP:",
      "category": "sast",
      "name": "Improper control of generation of code ('Code Injection')",
      "description": "Executing non-constant commands. This can lead to command injection.",
      "cve": "semgrep_id:PHPCS_SecurityAudit.BadFunctions.SystemExecFunctions.WarnSystemExec:7:7",
      "severity": "Critical",
      "scanner": {
        "id": "semgrep",
        "name": "Semgrep"
      },
      "location": {
        "file": "main.php",
        "start_line": 7
      },
      "identifiers": [
        {
          "type": "semgrep_id",
          "name": "PHPCS_SecurityAudit.BadFunctions.SystemExecFunctions.WarnSystemExec",
          "value": "PHPCS_SecurityAudit.BadFunctions.SystemExecFunctions.WarnSystemExec"
        },
        {
          "type": "cwe",
          "name": "CWE-94",
          "value": "94",
          "url": "https://cwe.mitre.org/data/definitions/94.html"
        },
        {
          "type": "owasp",
          "name": "A03:2021 - Injection",
          "value": "A03:2021"
        },
        {
          "type": "owasp",
          "name": "A1:2017 - Injection",
          "value": "A1:2017"
        },
        {
          "type": "phpcs_security_audit_source",
          "name": "PHPCS Security Audit Test ID PHPCS_SecurityAudit.BadFunctions.SystemExecFunctions.WarnSystemExec",
          "value": "PHPCS_SecurityAudit.BadFunctions.SystemExecFunctions.WarnSystemExec"
        }
      ],
      "tracking": {
        "type": "source",
        "items": [
          {
            "file": "main.php",
            "line_start": 7,
            "line_end": 7,
            "signatures": [
              {
                "algorithm": "scope_offset",
                "value": "main.php|main[0]:3"
              }
            ]
          }
        ]
      }
    },
    {
      "id": ":SKIP:",
      "category": "sast",
      "name": "Cleartext transmission of sensitive information",
      "description": "FTP allows for unencrypted file transfers. Consider using an encrypted alternative.",
      "cve": "semgrep_id:PHPCS_SecurityAudit.BadFunctions.FringeFunctions.WarnFringestuff:6:6",
      "severity": "Medium",
      "scanner": {
        "id": "semgrep",
        "name": "Semgrep"
      },
      "location": {
        "file": "main.php",
        "start_line": 6
      },
      "identifiers": [
        {
          "type": "semgrep_id",
          "name": "PHPCS_SecurityAudit.BadFunctions.FringeFunctions.WarnFringestuff",
          "value": "PHPCS_SecurityAudit.BadFunctions.FringeFunctions.WarnFringestuff"
        },
        {
          "type": "cwe",
          "name": "CWE-319",
          "value": "319",
          "url": "https://cwe.mitre.org/data/definitions/319.html"
        },
        {
          "type": "owasp",
          "name": "A02:2021 - Cryptographic Failures",
          "value": "A02:2021"
        },
        {
          "type": "owasp",
          "name": "A3:2017 - Sensitive Data Exposure",
          "value": "A3:2017"
        },
        {
          "type": "phpcs_security_audit_source",
          "name": "PHPCS Security Audit Test ID PHPCS_SecurityAudit.BadFunctions.FringeFunctions.WarnFringestuff",
          "value": "PHPCS_SecurityAudit.BadFunctions.FringeFunctions.WarnFringestuff"
        }
      ],
      "tracking": {
        "type": "source",
        "items": [
          {
            "file": "main.php",
            "line_start": 6,
            "line_end": 6,
            "signatures": [
              {
                "algorithm": "scope_offset",
                "value": "main.php|main[0]:2"
              }
            ]
          }
        ]
      }
    },
    {
      "id": ":SKIP:",
      "category": "sast",
      "name": "Exposure of sensitive information to an unauthorized actor",
      "description": "The 'phpinfo' function may reveal sensitive information about your environment.",
      "cve": "semgrep_id:PHPCS_SecurityAudit.BadFunctions.Phpinfos.WarnPhpinfo:5:5",
      "severity": "Medium",
      "scanner": {
        "id": "semgrep",
        "name": "Semgrep"
      },
      "location": {
        "file": "main.php",
        "start_line": 5
      },
      "identifiers": [
        {
          "type": "semgrep_id",
          "name": "PHPCS_SecurityAudit.BadFunctions.Phpinfos.WarnPhpinfo",
          "value": "PHPCS_SecurityAudit.BadFunctions.Phpinfos.WarnPhpinfo"
        },
        {
          "type": "cwe",
          "name": "CWE-200",
          "value": "200",
          "url": "https://cwe.mitre.org/data/definitions/200.html"
        },
        {
          "type": "owasp",
          "name": "A01:2021 - Broken Access Control",
          "value": "A01:2021"
        },
        {
          "type": "owasp",
          "name": "A5:2017 - Broken Access Control",
          "value": "A5:2017"
        },
        {
          "type": "phpcs_security_audit_source",
          "name": "PHPCS Security Audit Test ID PHPCS_SecurityAudit.BadFunctions.Phpinfos.WarnPhpinfo",
          "value": "PHPCS_SecurityAudit.BadFunctions.Phpinfos.WarnPhpinfo"
        }
      ],
      "tracking": {
        "type": "source",
        "items": [
          {
            "file": "main.php",
            "line_start": 5,
            "line_end": 5,
            "signatures": [
              {
                "algorithm": "scope_offset",
                "value": "main.php|main[0]:1"
              }
            ]
          }
        ]
      }
    }
  ],
  "dependency_files": null,
  "scan": {
    "analyzer": {
      "id": "semgrep",
      "name": "Semgrep",
      "url": "https://gitlab.com/gitlab-org/security-products/analyzers/semgrep",
      "vendor": {
        "name": "GitLab"
      },
      "version": ":SKIP:"
    },
    "scanner": {
      "id": "semgrep",
      "name": "Semgrep",
      "url": "https://github.com/returntocorp/semgrep",
      "vendor": {
        "name": "GitLab"
      },
      "version": ":SKIP:"
    },
    "type": "sast",
    "start_time": ":SKIP:",
    "end_time": ":SKIP:",
    "status": "success"
  }
}
